it\stachura\vfc\server\service\impl\HelloServiceImpl.class
it\stachura\vfc\server\WebSecurityConfiguration.class
it\stachura\vfc\server\rest\HelloWorldControllerRest.class
it\stachura\vfc\server\documents\Hello.class
it\stachura\vfc\server\service\HelloService.class
it\stachura\vfc\server\VfcApplication.class
it\stachura\vfc\server\WebConfig.class
it\stachura\vfc\server\repository\HelloRepository.class
